<?xml version="1.0" encoding="utf-8"?>
<!-- Generator: Adobe Illustrator 27.4.1, SVG Export Plug-In . SVG Version: 6.00 Build 0)  -->
<svg version="1.1" id="Layer_1" xmlns="http://www.w3.org/2000/svg" xmlns:xlink="http://www.w3.org/1999/xlink" x="0px" y="0px"
	 viewBox="0 0 82 82" style="enable-background:new 0 0 82 82;" xml:space="preserve">
<style type="text/css">
	.st0{fill:#FFFFFF;}
</style>
<g id="envelope-users-blue" transform="translate(619.889 748.362)">
	<path id="Path_188" class="st0" d="M-546.2-729.7h-65.9c-2.2,0.1-3.9,1.8-3.8,4v43.6c0,2.2,1.7,3.9,3.8,4h65.9
		c2.2-0.1,3.9-1.8,3.8-4v-43.6c0.1-2.1-1.6-3.9-3.7-4C-546.1-729.7-546.1-729.7-546.2-729.7z M-545.2-683.3L-561-704
		c-0.4-0.6-1.3-0.8-1.9-0.3c0,0-0.1,0.1-0.1,0.1c-0.6,0.5-0.8,1.5-0.3,2.1l16,20.8H-611l16-20.8c0.5-0.7,0.4-1.6-0.3-2.1
		c-0.6-0.5-1.5-0.4-1.9,0.2c0,0-0.1,0.1-0.1,0.1l-15.7,20.7v-41.6l30.1,23.7c1.1,0.9,2.4,1.3,3.8,1.3c1.4,0,2.8-0.4,3.8-1.3
		l30.2-23.7V-683.3z M-610.6-726.8h63.2l-29.4,23.2c-0.6,0.4-1.4,0.7-2.2,0.7c-0.8,0-1.5-0.2-2.2-0.7L-610.6-726.8z"/>
</g>
</svg>
